lab6/test_run_dir/DisplayTest_should_pass/Display.vcd
$date
2023-03-23T15:51+0000
$end
$version
0.2
$end
$comment

$end
$timescale 1ns  $end
$scope module Display $end
 $var wire 4 ' io_an $end
 $var wire 1 + clock $end
 $var wire 1 , reset $end
 $var wire 7 . io_seg $end
 $var wire 16 4 io_sw $end
 $var wire 1 6 dispMux $end
  $scope module dispMux $end
   $var wire 4 ! io_an $end
   $var wire 4 # MuxOut $end
   $var wire 1 % clock $end
   $var wire 4 & select $end
   $var wire 7 ( io_seg $end
   $var wire 17 ) counterClock $end
   $var wire 8 * io_sum $end
   $var wire 2 - counterAn $end
   $var wire 4 / d $end
   $var wire 4 0 b $end
   $var wire 4 1 c $end
   $var wire 8 2 io_price $end
   $var wire 4 3 a $end
   $var wire 1 5 reset $end
   $var wire 1 7 converter $end
   $var wire 7 8 sevSeg $end
    $scope module converter $end
     $var wire 4 " io_in $end
     $var wire 7 $ io_out $end
     $var wire 7 9 sevSeg $end
    $upscope $end
  $upscope $end
  $scope module dispMux.converter $end
  $upscope $end
$upscope $end
$enddefinitions $end
$dumpvars
b00000000 *
05
06
07
b00000000000000000 )
b00 -
b0000000000000000 4
b00000000 2
b0000000 9
b0000000 8
b0000 "
b0000 #
b0000 !
b0000000 .
b0000000 $
b0000 &
b0000 '
b0000000 (
b0000 3
b0000 0
b0000 1
0%
b0000 /
0+
0,
$end
#0
b1110 !
b1000000 $
15
b0001 &
b1110 '
b0111111 (
b1000000 8
b0111111 9
1,
b0111111 .
#1
1%
1+
#6
b0001 "
b0001 #
b1111001 $
0%
b0000110 (
b00010010 *
0+
0,
b0000110 .
b0100 /
b0010 0
b0011 1
b00110100 2
b0001 3
b0001001000110100 4
05
b1111001 8
b0000110 9
#11
1%
b00000000000000001 )
1+
#16
0%
0+
#21
1%
b00000000000000010 )
1+
#26
0%
0+
#31
1%
b00000000000000011 )
1+
#36
0%
0+
#41
1%
b00000000000000100 )
1+
#46
0%
0+
#51
1%
b00000000000000101 )
1+
#56
0%
0+
#61
1%
b00000000000000110 )
1+
#66
0%
0+
#71
1%
b00000000000000111 )
1+
#76
0%
0+
#81
1%
b00000000000001000 )
1+
#86
0%
0+
#91
1%
b00000000000001001 )
1+
#96
0%
0+
#101
1%
b00000000000001010 )
1+
#106
0%
0+
#111
b1101 !
b0010 "
b0010 #
b0100100 $
1%
b0010 &
b1101 '
b1011011 (
b00000000000000000 )
1+
b01 -
b1011011 .
b0100100 8
b1011011 9
#116
0%
0+
#121
1%
b00000000000000001 )
1+
#126
0%
0+
#131
1%
b00000000000000010 )
1+
#136
0%
0+
#141
1%
b00000000000000011 )
1+
#146
0%
0+
#151
1%
b00000000000000100 )
1+
#156
0%
0+
#161
1%
b00000000000000101 )
1+
#166
0%
0+
#171
1%
b00000000000000110 )
1+
#176
0%
0+
#181
1%
b00000000000000111 )
1+
#186
0%
0+
#191
1%
b00000000000001000 )
1+
#196
0%
0+
#201
1%
b00000000000001001 )
1+
#206
0%
0+
#211
1%
b00000000000001010 )
1+
#216
0%
0+
#221
b1011 !
b0011 "
b0011 #
b0110000 $
1%
b0100 &
b1011 '
b1001111 (
b00000000000000000 )
1+
b10 -
b1001111 .
b0110000 8
b1001111 9
#226
0%
0+
#231
1%
b00000000000000001 )
1+
#236
0%
0+
#241
1%
b00000000000000010 )
1+
#246
0%
0+
#251
1%
b00000000000000011 )
1+
#256
0%
0+
#261
1%
b00000000000000100 )
1+
#266
0%
0+
#271
1%
b00000000000000101 )
1+
#276
0%
0+
#281
1%
b00000000000000110 )
1+
#286
0%
0+
#291
1%
b00000000000000111 )
1+
#296
0%
0+
#301
1%
b00000000000001000 )
1+
#306
0%
0+
#311
1%
b00000000000001001 )
1+
#316
0%
0+
#321
1%
b00000000000001010 )
1+
#326
0%
0+
#331
b0111 !
b0100 "
b0100 #
b0011001 $
1%
b1000 &
b0111 '
b1100110 (
b00000000000000000 )
1+
b11 -
b1100110 .
b0011001 8
b1100110 9
#336
0%
0+
#341
1%
b00000000000000001 )
1+
#346
0%
0+
#351
1%
b00000000000000010 )
1+
#356
0%
0+
#361
1%
b00000000000000011 )
1+
#366
0%
0+
#371
1%
b00000000000000100 )
1+
#376
0%
0+
#381
1%
b00000000000000101 )
1+
#386
0%
0+
#391
1%
b00000000000000110 )
1+
#396
0%
0+
#401
1%
b00000000000000111 )
1+
#406
0%
0+
#411
1%
b00000000000001000 )
1+
#416
0%
0+
#421
1%
b00000000000001001 )
1+
#426
0%
0+
#431
1%
b00000000000001010 )
1+
#436
0%
0+
#441
b1110 !
b0001 "
b0001 #
b1111001 $
1%
b0001 &
b1110 '
b0000110 (
b00000000000000000 )
1+
b00 -
b0000110 .
b1111001 8
b0000110 9
#446
0%
0+
#451
1%
b00000000000000001 )
1+
#456
0%
0+
#461
1%
b00000000000000010 )
1+
#466
0%
0+
#471
1%
b00000000000000011 )
1+
#476
0%
0+
#481
1%
b00000000000000100 )
1+
#486
0%
0+
#491
1%
b00000000000000101 )
1+
#496
0%
0+
#501
1%
b00000000000000110 )
1+
#506
0%
0+
#511
1%
b00000000000000111 )
1+
#516
0%
0+
#521
1%
b00000000000001000 )
1+
#526
0%
0+
#531
1%
b00000000000001001 )
1+
#536
0%
0+
#541
1%
b00000000000001010 )
1+
#546
0%
0+
#551
b1101 !
b0010 "
b0010 #
b0100100 $
1%
b0010 &
b1101 '
b1011011 (
b00000000000000000 )
1+
b01 -
b1011011 .
b0100100 8
b1011011 9
#556
0%
0+
#561
1%
b00000000000000001 )
1+
#566
0%
0+
#571
1%
b00000000000000010 )
1+
#576
0%
0+
#581
1%
b00000000000000011 )
1+
#586
0%
0+
#591
1%
b00000000000000100 )
1+
#596
0%
0+
#601
1%
b00000000000000101 )
1+
#606
0%
0+
#611
1%
b00000000000000110 )
1+
#616
0%
0+
#621
1%
b00000000000000111 )
1+
#626
0%
0+
#631
1%
b00000000000001000 )
1+
#636
0%
0+
#641
1%
b00000000000001001 )
1+
#646
0%
0+
#651
1%
b00000000000001010 )
1+
#656
0%
0+
#661
b1011 !
b0011 "
b0011 #
b0110000 $
1%
b0100 &
b1011 '
b1001111 (
b00000000000000000 )
1+
b10 -
b1001111 .
b0110000 8
b1001111 9
#666
0%
0+
#671
1%
b00000000000000001 )
1+
#676
0%
0+
#681
1%
b00000000000000010 )
1+
#686
0%
0+
#691
1%
b00000000000000011 )
1+
#696
0%
0+
#701
1%
b00000000000000100 )
1+
#706
0%
0+
#711
1%
b00000000000000101 )
1+
#716
0%
0+
#721
1%
b00000000000000110 )
1+
#726
0%
0+
#731
1%
b00000000000000111 )
1+
#736
0%
0+
#741
1%
b00000000000001000 )
1+
#746
0%
0+
#751
1%
b00000000000001001 )
1+
#756
0%
0+
#761
1%
b00000000000001010 )
1+
#766
0%
0+
#771
b0111 !
b0100 "
b0100 #
b0011001 $
1%
b1000 &
b0111 '
b1100110 (
b00000000000000000 )
1+
b11 -
b1100110 .
b0011001 8
b1100110 9
#776
0%
0+
#781
1%
b00000000000000001 )
1+
#786
0%
0+
#791
1%
b00000000000000010 )
1+
#796
0%
0+
#801
1%
b00000000000000011 )
1+
#806
0%
0+
#811
1%
b00000000000000100 )
1+
#816
0%
0+
#821
1%
b00000000000000101 )
1+
#826
0%
0+
#831
1%
b00000000000000110 )
1+
#836
0%
0+
#841
1%
b00000000000000111 )
1+
#846
0%
0+
#851
1%
b00000000000001000 )
1+
#856
0%
0+
#861
1%
b00000000000001001 )
1+
#866
0%
0+
#871
1%
b00000000000001010 )
1+
#876
0%
0+
#881
b1110 !
b0001 "
b0001 #
b1111001 $
1%
b0001 &
b1110 '
b0000110 (
b00000000000000000 )
1+
b00 -
b0000110 .
b1111001 8
b0000110 9
#886
0%
0+
#891
1%
b00000000000000001 )
1+
#896
0%
0+
#901
1%
b00000000000000010 )
1+
#906
0%
0+
#911
1%
b00000000000000011 )
1+
#916
0%
0+
#921
1%
b00000000000000100 )
1+
#926
0%
0+
#931
1%
b00000000000000101 )
1+
#936
0%
0+
#941
1%
b00000000000000110 )
1+
#946
0%
0+
#951
1%
b00000000000000111 )
1+
#956
0%
0+
#961
1%
b00000000000001000 )
1+
#966
0%
0+
#971
1%
b00000000000001001 )
1+
#976
0%
0+
#981
1%
b00000000000001010 )
1+
#986
0%
0+
#991
b1101 !
b0010 "
b0010 #
b0100100 $
1%
b0010 &
b1101 '
b1011011 (
b00000000000000000 )
1+
b01 -
b1011011 .
b0100100 8
b1011011 9
#996
0%
0+
#1001
1%
b00000000000000001 )
1+
#1006
0%
0+
#1011
1%
b00000000000000010 )
1+
#1016
0%
0+
#1021
1%
b00000000000000011 )
1+
#1026
0%
0+
#1031
1%
b00000000000000100 )
1+
#1036
0%
0+
#1041
1%
b00000000000000101 )
1+
#1046
0%
0+
#1051
1%
b00000000000000110 )
1+
#1056
0%
0+
#1061
1%
b00000000000000111 )
1+
#1066
0%
0+
#1071
1%
b00000000000001000 )
1+
#1076
0%
0+
#1081
1%
b00000000000001001 )
1+
#1086
0%
0+
#1091
1%
b00000000000001010 )
1+
#1096
0%
0+
#1101
b1011 !
b0011 "
b0011 #
b0110000 $
1%
b0100 &
b1011 '
b1001111 (
b00000000000000000 )
1+
b10 -
b1001111 .
b0110000 8
b1001111 9
#1106
0%
0+
#1111
1%
b00000000000000001 )
1+
#1116
0%
0+
#1121
1%
b00000000000000010 )
1+
#1126
0%
0+
#1131
1%
b00000000000000011 )
1+
#1136
0%
0+
#1141
1%
b00000000000000100 )
1+
#1146
0%
0+
#1151
1%
b00000000000000101 )
1+
#1156
0%
0+
#1161
1%
b00000000000000110 )
1+
#1166
0%
0+
#1171
1%
b00000000000000111 )
1+
#1176
0%
0+
#1181
1%
b00000000000001000 )
1+
#1186
0%
0+
#1191
1%
b00000000000001001 )
1+
#1196
0%
0+
#1201
1%
b00000000000001010 )
1+
#1206
0%
0+
#1211
b0111 !
b0100 "
b0100 #
b0011001 $
1%
b1000 &
b0111 '
b1100110 (
b00000000000000000 )
1+
b11 -
b1100110 .
b0011001 8
b1100110 9
#1216
0%
0+
#1221
1%
b00000000000000001 )
1+
#1226
0%
0+
#1231
1%
b00000000000000010 )
1+
#1236
0%
0+
#1241
1%
b00000000000000011 )
1+
#1246
0%
0+
#1251
1%
b00000000000000100 )
1+
#1256
0%
0+
#1261
1%
b00000000000000101 )
1+
#1266
0%
0+
#1271
1%
b00000000000000110 )
1+
#1276
0%
0+
#1281
1%
b00000000000000111 )
1+
#1286
0%
0+
#1291
1%
b00000000000001000 )
1+
#1296
0%
0+
#1301
1%
b00000000000001001 )
1+
#1306
0%
0+
#1311
1%
b00000000000001010 )
1+
#1316
0%
0+
#1321
b1110 !
b0001 "
b0001 #
b1111001 $
1%
b0001 &
b1110 '
b0000110 (
b00000000000000000 )
1+
b00 -
b0000110 .
b1111001 8
b0000110 9
#1326
0%
0+
#1331
1%
b00000000000000001 )
1+
#1336
0%
0+
#1341
1%
b00000000000000010 )
1+
#1346
0%
0+
#1351
1%
b00000000000000011 )
1+
#1356
0%
0+
#1361
1%
b00000000000000100 )
1+
#1366
0%
0+
#1371
1%
b00000000000000101 )
1+
#1376
0%
0+
#1381
1%
b00000000000000110 )
1+
#1386
0%
0+
#1391
1%
b00000000000000111 )
1+
#1396
0%
0+
#1401
1%
b00000000000001000 )
1+
#1406
0%
0+
#1411
1%
b00000000000001001 )
1+
#1416
0%
0+
#1421
1%
b00000000000001010 )
1+
#1426
0%
0+
#1431
b1101 !
b0010 "
b0010 #
b0100100 $
1%
b0010 &
b1101 '
b1011011 (
b00000000000000000 )
1+
b01 -
b1011011 .
b0100100 8
b1011011 9
#1436
0%
0+
#1441
1%
b00000000000000001 )
1+
#1446
0%
0+
#1451
1%
b00000000000000010 )
1+
#1456
0%
0+
#1461
1%
b00000000000000011 )
1+
#1466
0%
0+
#1471
1%
b00000000000000100 )
1+
#1476
0%
0+
#1481
1%
b00000000000000101 )
1+
#1486
0%
0+
#1491
1%
b00000000000000110 )
1+
#1496
0%
0+
#1501
1%
b00000000000000111 )
1+
#1506
0%
0+
#1511
1%
b00000000000001000 )
1+
#1516
0%
0+
#1521
1%
b00000000000001001 )
1+
#1526
0%
0+
#1531
1%
b00000000000001010 )
1+
#1536
0%
0+
#1541
b1011 !
b0011 "
b0011 #
b0110000 $
1%
b0100 &
b1011 '
b1001111 (
b00000000000000000 )
1+
b10 -
b1001111 .
b0110000 8
b1001111 9
#1546
0%
0+
#1551
1%
b00000000000000001 )
1+
#1556
0%
0+
#1561
1%
b00000000000000010 )
1+
#1566
0%
0+
#1571
1%
b00000000000000011 )
1+
#1576
0%
0+
#1581
1%
b00000000000000100 )
1+
#1586
0%
0+
#1591
1%
b00000000000000101 )
1+
#1596
0%
0+
#1601
1%
b00000000000000110 )
1+
#1606
0%
0+
#1611
1%
b00000000000000111 )
1+
#1616
0%
0+
#1621
1%
b00000000000001000 )
1+
#1626
0%
0+
#1631
1%
b00000000000001001 )
1+
#1636
0%
0+
#1641
1%
b00000000000001010 )
1+
#1646
0%
0+
#1651
b0111 !
b0100 "
b0100 #
b0011001 $
1%
b1000 &
b0111 '
b1100110 (
b00000000000000000 )
1+
b11 -
b1100110 .
b0011001 8
b1100110 9
#1656
0%
0+
#1661
1%
b00000000000000001 )
1+
#1666
0%
0+
#1671
1%
b00000000000000010 )
1+
#1676
0%
0+
#1681
1%
b00000000000000011 )
1+
#1686
0%
0+
#1691
1%
b00000000000000100 )
1+
#1696
0%
0+
#1701
1%
b00000000000000101 )
1+
#1706
0%
0+
#1711
1%
b00000000000000110 )
1+
#1716
0%
0+
#1721
1%
b00000000000000111 )
1+
#1726
0%
0+
#1731
1%
b00000000000001000 )
1+
#1736
0%
0+
#1741
1%
b00000000000001001 )
1+
#1746
0%
0+
#1751
1%
b00000000000001010 )
1+
#1756
0%
0+
#1761
b1110 !
b0001 "
b0001 #
b1111001 $
1%
b0001 &
b1110 '
b0000110 (
b00000000000000000 )
1+
b00 -
b0000110 .
b1111001 8
b0000110 9
#1766
0%
0+
#1771
1%
b00000000000000001 )
1+
#1776
0%
0+
#1781
1%
b00000000000000010 )
1+
#1786
0%
0+
#1791
1%
b00000000000000011 )
1+
#1796
0%
0+
#1801
1%
b00000000000000100 )
1+
#1806
0%
0+
#1811
1%
b00000000000000101 )
1+
#1816
0%
0+
#1821
1%
b00000000000000110 )
1+
#1826
0%
0+
#1831
1%
b00000000000000111 )
1+
#1836
0%
0+
#1841
1%
b00000000000001000 )
1+
#1846
0%
0+
#1851
1%
b00000000000001001 )
1+
#1856
0%
0+
#1861
1%
b00000000000001010 )
1+
#1866
0%
0+
#1871
b1101 !
b0010 "
b0010 #
b0100100 $
1%
b0010 &
b1101 '
b1011011 (
b00000000000000000 )
1+
b01 -
b1011011 .
b0100100 8
b1011011 9
#1876
0%
0+
#1881
1%
b00000000000000001 )
1+
#1886
0%
0+
#1891
1%
b00000000000000010 )
1+
#1896
0%
0+
#1901
1%
b00000000000000011 )
1+
#1906
0%
0+
#1911
1%
b00000000000000100 )
1+
#1916
0%
0+
#1921
1%
b00000000000000101 )
1+
#1926
0%
0+
#1931
1%
b00000000000000110 )
1+
#1936
0%
0+
#1941
1%
b00000000000000111 )
1+
#1946
0%
0+
#1951
1%
b00000000000001000 )
1+
#1956
0%
0+
#1961
1%
b00000000000001001 )
1+
#1966
0%
0+
#1971
1%
b00000000000001010 )
1+
#1976
0%
0+
#1981
b1011 !
b0011 "
b0011 #
b0110000 $
1%
b0100 &
b1011 '
b1001111 (
b00000000000000000 )
1+
b10 -
b1001111 .
b0110000 8
b1001111 9
#1986
0%
0+
#1991
1%
b00000000000000001 )
1+
#1996
0%
0+
#2001
1%
b00000000000000010 )
1+
#2006
b0000000000000000 4
0+
