lab3/test_run_dir/CountWave6_should_pass/Count6.vcd
$date
2023-03-03T15:08+0000
$end
$version
0.2
$end
$comment

$end
$timescale 1ns  $end
$scope module Count6 $end
 $var wire 8 ! res $end
 $var wire 8 " io_dout $end
 $var wire 1 # reset $end
 $var wire 1 $ clock $end
 $var wire 8 % newReg $end
$upscope $end
$enddefinitions $end
$dumpvars
0#
0$
b00000000 "
b00000000 %
b00000000 !
$end
#0
1#
#1
1$
#6
0#
0$
#11
b00000001 !
b00000001 "
1$
b00000001 %
#16
0$
#21
b00000010 !
b00000010 "
1$
b00000010 %
#26
0$
#31
b00000011 !
b00000011 "
1$
b00000011 %
#36
0$
#41
b00000100 !
b00000100 "
1$
b00000100 %
#46
0$
#51
b00000101 !
b00000101 "
1$
b00000101 %
#56
0$
#61
b00000110 !
b00000110 "
1$
b00000110 %
#66
0$
#71
b00000000 !
b00000000 "
1$
b00000000 %
#76
0$
#81
b00000001 !
b00000001 "
1$
b00000001 %
#86
0$
#91
b00000010 !
b00000010 "
1$
b00000010 %
#96
0$
#101
b00000011 !
b00000011 "
1$
b00000011 %
#106
0$
#111
b00000100 !
b00000100 "
1$
b00000100 %
#116
0$
#121
b00000101 !
b00000101 "
1$
b00000101 %
#126
0$
#131
b00000110 !
b00000110 "
1$
b00000110 %
#136
0$
#141
b00000000 !
b00000000 "
1$
b00000000 %
#146
0$
#151
b00000001 !
b00000001 "
1$
b00000001 %
#156
0$
#161
b00000010 !
b00000010 "
1$
b00000010 %
#166
0$
#171
b00000011 !
b00000011 "
1$
b00000011 %
#176
0$
#181
b00000100 !
b00000100 "
1$
b00000100 %
#186
0$
#191
b00000101 !
b00000101 "
1$
b00000101 %
#196
0$
#201
b00000110 !
b00000110 "
1$
b00000110 %
