lab5/test_run_dir/SevenSegTest_should_pass/CountSevenSeg.vcd
$date
2023-03-09T15:52+0000
$end
$version
0.2
$end
$comment

$end
$timescale 1ns  $end
$scope module CountSevenSeg $end
 $var wire 1 ! converter $end
 $var wire 4 " counter4bit $end
 $var wire 4 # io_an $end
 $var wire 1 $ clock $end
 $var wire 1 & reset $end
 $var wire 7 ) io_seg $end
 $var wire 7 * sevSeg $end
 $var wire 26 + counter2hz $end
  $scope module converter $end
   $var wire 4 % io_sw $end
   $var wire 7 ' sevSeg $end
   $var wire 7 ( io_seg $end
  $upscope $end
$upscope $end
$enddefinitions $end
$dumpvars
b0000 %
0!
b0000000 *
b0000 "
b0000 #
0$
0&
b00000000000000000000000000 +
b0000000 '
b0000000 )
b0000000 (
$end
#0
b1110 #
1&
b0111111 '
b1000000 (
b0111111 )
b1000000 *
#1
1$
#6
0$
0&
#11
1$
b00000000000000000000000001 +
#16
0$
#21
1$
b00000000000000000000000010 +
#26
0$
#31
1$
b00000000000000000000000011 +
#36
0$
#41
1$
b00000000000000000000000100 +
#46
0$
#51
1$
b00000000000000000000000101 +
#56
0$
#61
1$
b00000000000000000000000110 +
#66
0$
#71
1$
b00000000000000000000000111 +
#76
0$
#81
1$
b00000000000000000000001000 +
#86
0$
#91
1$
b00000000000000000000001001 +
#96
0$
#101
1$
b00000000000000000000001010 +
#106
0$
#111
b0001 "
1$
b0001 %
b0000110 '
b1111001 (
b0000110 )
b1111001 *
b00000000000000000000000000 +
#116
0$
#121
1$
b00000000000000000000000001 +
#126
0$
#131
1$
b00000000000000000000000010 +
#136
0$
#141
1$
b00000000000000000000000011 +
#146
0$
#151
1$
b00000000000000000000000100 +
#156
0$
#161
1$
b00000000000000000000000101 +
#166
0$
#171
1$
b00000000000000000000000110 +
#176
0$
#181
1$
b00000000000000000000000111 +
#186
0$
#191
1$
b00000000000000000000001000 +
#196
0$
#201
1$
b00000000000000000000001001 +
#206
0$
#211
1$
b00000000000000000000001010 +
#216
0$
#221
b0010 "
1$
b0010 %
b1011011 '
b0100100 (
b1011011 )
b0100100 *
b00000000000000000000000000 +
#226
0$
#231
1$
b00000000000000000000000001 +
#236
0$
#241
1$
b00000000000000000000000010 +
#246
0$
#251
1$
b00000000000000000000000011 +
#256
0$
#261
1$
b00000000000000000000000100 +
#266
0$
#271
1$
b00000000000000000000000101 +
#276
0$
#281
1$
b00000000000000000000000110 +
#286
0$
#291
1$
b00000000000000000000000111 +
#296
0$
#301
1$
b00000000000000000000001000 +
#306
0$
#311
1$
b00000000000000000000001001 +
#316
0$
#321
1$
b00000000000000000000001010 +
#326
0$
#331
b0011 "
1$
b0011 %
b1001111 '
b0110000 (
b1001111 )
b0110000 *
b00000000000000000000000000 +
#336
0$
#341
1$
b00000000000000000000000001 +
#346
0$
#351
1$
b00000000000000000000000010 +
#356
0$
#361
1$
b00000000000000000000000011 +
#366
0$
#371
1$
b00000000000000000000000100 +
#376
0$
#381
1$
b00000000000000000000000101 +
#386
0$
#391
1$
b00000000000000000000000110 +
#396
0$
#401
1$
b00000000000000000000000111 +
#406
0$
#411
1$
b00000000000000000000001000 +
#416
0$
#421
1$
b00000000000000000000001001 +
#426
0$
#431
1$
b00000000000000000000001010 +
#436
0$
#441
b0100 "
1$
b0100 %
b1100110 '
b0011001 (
b1100110 )
b0011001 *
b00000000000000000000000000 +
#446
0$
#451
1$
b00000000000000000000000001 +
#456
0$
#461
1$
b00000000000000000000000010 +
#466
0$
#471
1$
b00000000000000000000000011 +
#476
0$
#481
1$
b00000000000000000000000100 +
#486
0$
#491
1$
b00000000000000000000000101 +
#496
0$
#501
1$
b00000000000000000000000110 +
#506
0$
#511
1$
b00000000000000000000000111 +
#516
0$
#521
1$
b00000000000000000000001000 +
#526
0$
#531
1$
b00000000000000000000001001 +
#536
0$
#541
1$
b00000000000000000000001010 +
#546
0$
#551
b0101 "
1$
b0101 %
b1101101 '
b0010010 (
b1101101 )
b0010010 *
b00000000000000000000000000 +
#556
0$
#561
1$
b00000000000000000000000001 +
#566
0$
#571
1$
b00000000000000000000000010 +
#576
0$
#581
1$
b00000000000000000000000011 +
#586
0$
#591
1$
b00000000000000000000000100 +
#596
0$
#601
1$
b00000000000000000000000101 +
#606
0$
#611
1$
b00000000000000000000000110 +
#616
0$
#621
1$
b00000000000000000000000111 +
#626
0$
#631
1$
b00000000000000000000001000 +
#636
0$
#641
1$
b00000000000000000000001001 +
#646
0$
#651
1$
b00000000000000000000001010 +
#656
0$
#661
b0110 "
1$
b0110 %
b1111101 '
b0000010 (
b1111101 )
b0000010 *
b00000000000000000000000000 +
#666
0$
#671
1$
b00000000000000000000000001 +
#676
0$
#681
1$
b00000000000000000000000010 +
#686
0$
#691
1$
b00000000000000000000000011 +
#696
0$
#701
1$
b00000000000000000000000100 +
#706
0$
#711
1$
b00000000000000000000000101 +
#716
0$
#721
1$
b00000000000000000000000110 +
#726
0$
#731
1$
b00000000000000000000000111 +
#736
0$
#741
1$
b00000000000000000000001000 +
#746
0$
#751
1$
b00000000000000000000001001 +
#756
0$
#761
1$
b00000000000000000000001010 +
#766
0$
#771
b0111 "
1$
b0111 %
b0000111 '
b1111000 (
b0000111 )
b1111000 *
b00000000000000000000000000 +
#776
0$
#781
1$
b00000000000000000000000001 +
#786
0$
#791
1$
b00000000000000000000000010 +
#796
0$
#801
1$
b00000000000000000000000011 +
#806
0$
#811
1$
b00000000000000000000000100 +
#816
0$
#821
1$
b00000000000000000000000101 +
#826
0$
#831
1$
b00000000000000000000000110 +
#836
0$
#841
1$
b00000000000000000000000111 +
#846
0$
#851
1$
b00000000000000000000001000 +
#856
0$
#861
1$
b00000000000000000000001001 +
#866
0$
#871
1$
b00000000000000000000001010 +
#876
0$
#881
b1000 "
1$
b1000 %
b1111111 '
b0000000 (
b1111111 )
b0000000 *
b00000000000000000000000000 +
#886
0$
#891
1$
b00000000000000000000000001 +
#896
0$
#901
1$
b00000000000000000000000010 +
#906
0$
#911
1$
b00000000000000000000000011 +
#916
0$
#921
1$
b00000000000000000000000100 +
#926
0$
#931
1$
b00000000000000000000000101 +
#936
0$
#941
1$
b00000000000000000000000110 +
#946
0$
#951
1$
b00000000000000000000000111 +
#956
0$
#961
1$
b00000000000000000000001000 +
#966
0$
#971
1$
b00000000000000000000001001 +
#976
0$
#981
1$
b00000000000000000000001010 +
#986
0$
#991
b1001 "
1$
b1001 %
b1101111 '
b0010000 (
b1101111 )
b0010000 *
b00000000000000000000000000 +
#996
0$
#1001
1$
b00000000000000000000000001 +
