vending/test_run_dir/Vending_machine_test_should_pass/VendingMachine.vcd
$date
2023-05-19T09:21+0000
$end
$version
0.2
$end
$comment

$end
$timescale 1ns  $end
$scope module VendingMachine $end
 $var wire 3 ! state $end
 $var wire 4 " io_an $end
 $var wire 8 $ sum $end
 $var wire 17 % counterClock $end
 $var wire 1 * add5_REG $end
 $var wire 1 / io_buy $end
 $var wire 1 1 bcdConv $end
 $var wire 5 = numberc5 $end
 $var wire 5 D numberc2 $end
 $var wire 7 I io_seg $end
 $var wire 4 K select $end
 $var wire 1 W SevSegConv $end
 $var wire 1 X io_alarm $end
 $var wire 1 Y add2_REG $end
 $var wire 1 ] io_releaseCan $end
 $var wire 1 a reset $end
 $var wire 7 h sevSeg $end
 $var wire 5 r io_price $end
 $var wire 4 t MuxOut $end
 $var wire 1 "# add5 $end
 $var wire 1 "% io_coin5 $end
 $var wire 1 "' io_coin2 $end
 $var wire 1 ") add2 $end
 $var wire 1 ". clock $end
 $var wire 2 "/ counterAn $end
  $scope module SevSegConv $end
   $var wire 4 # io_in $end
   $var wire 7 L sevSeg $end
   $var wire 7 ": io_out $end
  $upscope $end
  $scope module bcdConv $end
   $var wire 8 & table_92 $end
   $var wire 8 ' table_91 $end
   $var wire 8 ( table_94 $end
   $var wire 8 ) table_93 $end
   $var wire 8 + table_96 $end
   $var wire 8 , table_95 $end
   $var wire 8 - table_98 $end
   $var wire 8 . table_97 $end
   $var wire 8 0 table_99 $end
   $var wire 8 2 table_8 $end
   $var wire 8 3 table_9 $end
   $var wire 8 4 table_90 $end
   $var wire 8 5 table_2 $end
   $var wire 8 6 table_81 $end
   $var wire 8 7 table_3 $end
   $var wire 8 8 table_80 $end
   $var wire 8 9 table_0 $end
   $var wire 8 : table_83 $end
   $var wire 8 ; table_1 $end
   $var wire 8 < table_82 $end
   $var wire 8 > table_6 $end
   $var wire 8 ? table_85 $end
   $var wire 8 @ table_7 $end
   $var wire 8 A table_84 $end
   $var wire 8 B table_4 $end
   $var wire 8 C table_87 $end
   $var wire 8 E table_5 $end
   $var wire 8 F table_86 $end
   $var wire 8 G table_89 $end
   $var wire 8 H table_88 $end
   $var wire 8 J io_out $end
   $var wire 8 M table_50 $end
   $var wire 8 N table_52 $end
   $var wire 8 O table_51 $end
   $var wire 8 P table_54 $end
   $var wire 8 Q table_53 $end
   $var wire 8 R table_56 $end
   $var wire 8 S table_55 $end
   $var wire 8 T table_58 $end
   $var wire 8 U table_57 $end
   $var wire 8 V table_59 $end
   $var wire 8 Z table_41 $end
   $var wire 8 [ table_40 $end
   $var wire 8 \ io_in $end
   $var wire 8 ^ table_43 $end
   $var wire 8 _ table_42 $end
   $var wire 8 ` table_45 $end
   $var wire 8 b table_44 $end
   $var wire 8 c table_47 $end
   $var wire 8 d table_46 $end
   $var wire 8 e table_49 $end
   $var wire 8 f table_48 $end
   $var wire 8 g table_70 $end
   $var wire 8 i table_72 $end
   $var wire 8 j table_71 $end
   $var wire 8 k table_74 $end
   $var wire 8 l table_73 $end
   $var wire 8 m table_76 $end
   $var wire 8 n table_75 $end
   $var wire 8 o table_78 $end
   $var wire 8 p table_77 $end
   $var wire 8 q table_79 $end
   $var wire 8 s table_61 $end
   $var wire 8 u table_60 $end
   $var wire 8 v table_63 $end
   $var wire 8 w table_62 $end
   $var wire 8 x table_65 $end
   $var wire 8 y table_64 $end
   $var wire 8 z table_67 $end
   $var wire 8 { table_66 $end
   $var wire 8 | table_69 $end
   $var wire 8 } table_68 $end
   $var wire 8 ~ table_19 $end
   $var wire 8 "! table_10 $end
   $var wire 8 "" table_12 $end
   $var wire 8 "$ table_11 $end
   $var wire 8 "& table_14 $end
   $var wire 8 "( table_13 $end
   $var wire 8 "* table_16 $end
   $var wire 8 "+ table_15 $end
   $var wire 8 ", table_18 $end
   $var wire 8 "- table_17 $end
   $var wire 8 "0 table_30 $end
   $var wire 8 "1 table_32 $end
   $var wire 8 "2 table_31 $end
   $var wire 8 "3 table_34 $end
   $var wire 8 "4 table_33 $end
   $var wire 8 "5 table_36 $end
   $var wire 8 "6 table_35 $end
   $var wire 8 "7 table_38 $end
   $var wire 8 "8 table_37 $end
   $var wire 8 "9 table_39 $end
   $var wire 8 "; table_21 $end
   $var wire 8 "< table_20 $end
   $var wire 8 "= table_23 $end
   $var wire 8 "> table_22 $end
   $var wire 8 "? table_25 $end
   $var wire 8 "@ table_24 $end
   $var wire 8 "A table_27 $end
   $var wire 8 "B table_26 $end
   $var wire 8 "C table_29 $end
   $var wire 8 "D table_28 $end
  $upscope $end
$upscope $end
$enddefinitions $end
$dumpvars
b00000000 k
01
b00000000 j
b00000000 m
b00000000000000000 %
b00000000 l
b00000000 g
b00000000 f
b00000000 i
b0000000 ":
b00000000 c
b00000000 b
b00000000 e
b00000000 d
b00000000 _
b00000000 ^
b00000000 `
b00000000 {
b00000000 z
b00000000 }
b00000000 |
b00000000 w
b00000000 v
b00000000 y
b00000000 x
b00000000 s
b00000000 u
b00000000 o
b00000000 n
b00000000 q
b00000000 p
b00000000 J
b0000 "
b00000000 M
b0000 #
b00000000 G
b00000000 F
0W
b00000000 H
0X
b00000000 C
0Y
b00000000 B
b00000000 E
b00000000 ?
0]
b00000000 >
b00000000 A
b00000000 @
b00000000 [
0a
b00000000 Z
b00000000 \
b00000000 V
b00000000 S
b00000000 R
b00000000 U
b00000000 T
b00000000 O
b00000000 ""
b00000000 N
b00000000 "!
b00000000 Q
b00000000 P
b00000000 "&
b00000000 "$
b00000000 "+
b00000000 "*
b00000000 "(
b00000000 "-
b00000000 ",
b00000000 "3
b00000000 "2
b00000000 "1
b00000000 "0
b00000000 "7
b00000000 "6
b00000000 "5
b00000000 "4
b00000000 ";
b00000000 "9
b00000000 "8
b00000000 "?
b00000000 ">
b00000000 "=
b00000000 "<
b00000000 "C
b00000000 "B
b00000000 "A
b00000000 "@
b00000000 "D
b00000000 ~
0"#
0"%
0"'
0")
0".
b00000 =
b0000000 h
b00000 D
b00 "/
b00000000 +
b00000000 -
b0000000 L
b00000000 ,
b00000000 '
b00000000 &
b00000000 )
b00000000 (
b0000 K
b00000000 $
b0000000 I
b00000000 ;
b00000000 :
b00000000 <
b00000000 7
b00000000 6
b00000000 9
b00000000 8
b00000000 3
b00000000 2
b00000000 5
b00000000 4
b00000000 .
b00000000 0
b00000 r
b0000 t
b000 !
0*
0/
$end
#0
b1110 "
b10010010 &
b10010001 '
b10010100 (
b10010011 )
b10010110 +
b10010101 ,
b10011000 -
b10010111 .
b10011001 0
b00001000 2
b00001001 3
b10010000 4
b00000010 5
b10000001 6
b00000011 7
b10000000 8
b10000011 :
b00000001 ;
b10000010 <
b00000110 >
b10000101 ?
b00010000 "!
b00000111 @
b00010010 ""
b10000100 A
b00000100 B
b00010001 "$
b10000111 C
b00010100 "&
b00000101 E
b10000110 F
b00010011 "(
b10001001 G
b10001000 H
b00010110 "*
b1000000 I
b00010101 "+
b00011000 ",
b0001 K
b00010111 "-
b0111111 L
b01010000 M
b01010010 N
b00110000 "0
b01010001 O
b00110010 "1
b01010100 P
b00110001 "2
b01010011 Q
b00110100 "3
b01010110 R
b00110011 "4
b01010101 S
b00110110 "5
b01011000 T
b00110101 "6
b01010111 U
b00111000 "7
b01011001 V
b00110111 "8
b00111001 "9
b0111111 ":
b00100001 ";
b01000001 Z
b00100000 "<
b01000000 [
b00100011 "=
b00100010 ">
b00100101 "?
b01000011 ^
b00100100 "@
b01000010 _
b00100111 "A
b01000101 `
b00100110 "B
1a
b00101001 "C
b01000100 b
b00101000 "D
b01000111 c
b01000110 d
b01001001 e
b01001000 f
b01110000 g
b0111111 h
b01110010 i
b01110001 j
b01110100 k
b01110011 l
b01110110 m
b01110101 n
b01111000 o
b01110111 p
b01111001 q
b01100001 s
b01100000 u
b01100011 v
b01100010 w
b01100101 x
b01100100 y
b01100111 z
b01100110 {
b01101001 |
b01101000 }
b00011001 ~
#1
1".
#6
0a
b11110 r
b00110000 J
b00011110 \
0".
#11
b00000000000000001 %
1".
#16
0".
#21
b00000000000000010 %
1".
#26
1"#
1"%
0".
#31
b010 !
0"#
b00000000000000011 %
1*
1".
#36
0".
#41
b000 !
b00000101 $
b00000000000000100 %
1".
b00001 =
#46
0"%
0".
#51
b00000000000000101 %
0*
1".
#56
0".
#61
b00000000000000110 %
1".
#66
1"#
1"%
0".
#71
b010 !
0"#
b00000000000000111 %
1*
1".
#76
0".
#81
b000 !
b00001010 $
b00000000000001000 %
1".
b00010 =
#86
0"%
0".
#91
b00000000000001001 %
0*
1".
#96
0".
#101
b00000000000001010 %
1".
#106
1"#
1"%
0".
#111
b010 !
0"#
b00000000000001011 %
1*
1".
#116
0".
#121
b000 !
b00001111 $
b00000000000001100 %
1".
b00011 =
#126
0"%
0".
#131
b00000000000001101 %
0*
1".
#136
0".
#141
b00000000000001110 %
1".
#146
1"#
1"%
0".
#151
b010 !
0"#
b00000000000001111 %
1*
1".
#156
0".
#161
b000 !
b00010100 $
b00000000000010000 %
1".
b00100 =
#166
0"%
0".
#171
b00000000000010001 %
0*
1".
#176
0".
#181
b00000000000010010 %
1".
#186
1"#
1"%
0".
#191
b010 !
0"#
b00000000000010011 %
1*
1".
#196
0".
#201
b000 !
b00011001 $
b00000000000010100 %
1".
b00101 =
#206
0"%
0".
#211
b00000000000010101 %
0*
1".
#216
0".
#221
b00000000000010110 %
1".
#226
1"#
1"%
0".
#231
b010 !
0"#
b00000000000010111 %
1*
1".
#236
0".
#241
b000 !
b00011110 $
b00000000000011000 %
1".
b00110 =
#246
0"%
0".
#251
b00000000000011001 %
0*
1".
#256
0".
#261
b00000000000011010 %
1".
#266
0".
#271
b00000000000011011 %
1".
#276
0".
#281
b00000000000011100 %
1".
#286
0".
#291
b00000000000011101 %
1".
#296
1"#
1"%
0".
#301
0"#
b00000000000011110 %
1*
1".
#306
0".
#311
b00000000000011111 %
1".
#316
0".
#321
b00000000000100000 %
1".
#326
0".
#331
b00000000000100001 %
1".
#336
0".
#341
b00000000000100010 %
1".
#346
0"%
0".
#351
b00000000000100011 %
0*
1".
#356
0".
#361
b00000000000100100 %
1".
#366
1"'
1")
0".
#371
b00000000000100101 %
0")
1Y
1".
#376
0".
#381
b00000000000100110 %
1".
#386
0".
#391
b00000000000100111 %
1".
#396
0".
#401
b00000000000101000 %
1".
#406
0".
#411
b00000000000101001 %
1".
#416
0"'
0".
#421
b00000000000101010 %
0Y
1".
#426
0".
#431
b00000000000101011 %
1".
#436
0".
1/
#441
b100 !
b00000000000101100 %
1".
#446
0".
#451
b101 !
b00000000 $
b00000000000101101 %
1".
1]
#456
0".
0/
#461
b000 !
b00000000000101110 %
1".
0]
#466
0".
#471
b00000000000101111 %
1".
#476
b00000 r
0".
